<svg width="21" height="20" viewBox="0 0 21 20" fill="none" xmlns="http://www.w3.org/2000/svg">
<path d="M10.2002 0C4.69232 0 0.222168 4.48 0.222168 10C0.222168 15.52 4.69232 20 10.2002 20C15.7081 20 20.1782 15.52 20.1782 10C20.1782 4.48 15.7081 0 10.2002 0ZM5.28103 16.28C5.71008 15.38 8.32432 14.5 10.2002 14.5C12.0761 14.5 14.7003 15.38 15.1194 16.28C13.7623 17.36 12.0561 18 10.2002 18C8.34428 18 6.63804 17.36 5.28103 16.28ZM16.5462 14.83C15.1194 13.09 11.657 12.5 10.2002 12.5C8.7434 12.5 5.28103 13.09 3.85417 14.83C2.79416 13.4438 2.21908 11.7464 2.21777 10C2.21777 5.59 5.79988 2 10.2002 2C14.6005 2 18.1826 5.59 18.1826 10C18.1826 11.82 17.564 13.49 16.5462 14.83ZM10.2002 4C8.26445 4 6.70788 5.56 6.70788 7.5C6.70788 9.44 8.26445 11 10.2002 11C12.1359 11 13.6925 9.44 13.6925 7.5C13.6925 5.56 12.1359 4 10.2002 4ZM10.2002 9C9.37201 9 8.70349 8.33 8.70349 7.5C8.70349 6.67 9.37201 6 10.2002 6C11.0284 6 11.6969 6.67 11.6969 7.5C11.6969 8.33 11.0284 9 10.2002 9Z" fill="#CACACA"/>
</svg>
