<svg width="22" height="18" viewBox="0 0 22 18" fill="none" xmlns="http://www.w3.org/2000/svg">
<path d="M1 3C1 3 2.5 1 6 1C9.5 1 11 3 11 3V17C11 17 9.5 16 6 16C2.5 16 1 17 1 17V3Z" stroke="black" stroke-width="2" stroke-linecap="round" stroke-linejoin="round"/>
<path d="M11 3C11 3 12.5 1 16 1C19.5 1 21 3 21 3V17C21 17 19.5 16 16 16C12.5 16 11 17 11 17V3Z" stroke="black" stroke-width="2" stroke-linecap="round" stroke-linejoin="round"/>
</svg>
