<svg width="27" height="23" viewBox="0 0 27 23" fill="none" xmlns="http://www.w3.org/2000/svg">
<path d="M24.1562 3.87109H20.0391L19.0582 1.12227C18.9904 0.934171 18.8663 0.771584 18.7026 0.656713C18.539 0.541843 18.3439 0.480292 18.1439 0.480469H8.85606C8.44736 0.480469 8.08105 0.737793 7.94482 1.12227L6.96094 3.87109H2.84375C1.50566 3.87109 0.421875 4.95488 0.421875 6.29297V20.0977C0.421875 21.4357 1.50566 22.5195 2.84375 22.5195H24.1562C25.4943 22.5195 26.5781 21.4357 26.5781 20.0977V6.29297C26.5781 4.95488 25.4943 3.87109 24.1562 3.87109ZM13.5 17.6758C10.8238 17.6758 8.65625 15.5082 8.65625 12.832C8.65625 10.1559 10.8238 7.98828 13.5 7.98828C16.1762 7.98828 18.3438 10.1559 18.3438 12.832C18.3438 15.5082 16.1762 17.6758 13.5 17.6758ZM10.5938 12.832C10.5938 13.6028 10.8999 14.342 11.445 14.8871C11.99 15.4321 12.7292 15.7383 13.5 15.7383C14.2708 15.7383 15.01 15.4321 15.555 14.8871C16.1001 14.342 16.4062 13.6028 16.4062 12.832C16.4062 12.0612 16.1001 11.322 15.555 10.777C15.01 10.232 14.2708 9.92578 13.5 9.92578C12.7292 9.92578 11.99 10.232 11.445 10.777C10.8999 11.322 10.5938 12.0612 10.5938 12.832Z" fill="white"/>
</svg>
