<svg width="28" height="28" viewBox="0 0 28 28" fill="none" xmlns="http://www.w3.org/2000/svg">
<path d="M0.933362 0C0.685819 0 0.448415 0.098336 0.273375 0.273375C0.0983361 0.448415 0 0.685819 0 0.933362C0 1.18091 0.0983361 1.41831 0.273375 1.59335C0.448415 1.76839 0.685819 1.86672 0.933362 1.86672H3.00543L3.75398 4.86655L6.55034 19.7723C6.59037 19.9862 6.70389 20.1794 6.87125 20.3185C7.03861 20.4575 7.2493 20.5338 7.4669 20.534H9.33362C8.34345 20.534 7.39383 20.9273 6.69367 21.6275C5.99352 22.3276 5.60017 23.2772 5.60017 24.2674C5.60017 25.2576 5.99352 26.2072 6.69367 26.9074C7.39383 27.6075 8.34345 28.0009 9.33362 28.0009C10.3238 28.0009 11.2734 27.6075 11.9736 26.9074C12.6737 26.2072 13.0671 25.2576 13.0671 24.2674C13.0671 23.2772 12.6737 22.3276 11.9736 21.6275C11.2734 20.9273 10.3238 20.534 9.33362 20.534H22.4007C21.4105 20.534 20.4609 20.9273 19.7607 21.6275C19.0606 22.3276 18.6672 23.2772 18.6672 24.2674C18.6672 25.2576 19.0606 26.2072 19.7607 26.9074C20.4609 27.6075 21.4105 28.0009 22.4007 28.0009C23.3909 28.0009 24.3405 27.6075 25.0406 26.9074C25.7408 26.2072 26.1341 25.2576 26.1341 24.2674C26.1341 23.2772 25.7408 22.3276 25.0406 21.6275C24.3405 20.9273 23.3909 20.534 22.4007 20.534H24.2674C24.485 20.5338 24.6957 20.4575 24.8631 20.3185C25.0304 20.1794 25.1439 19.9862 25.184 19.7723L27.9841 4.83855C28.0093 4.70384 28.0045 4.56523 27.9701 4.43257C27.9357 4.29991 27.8725 4.17645 27.7851 4.07096C27.6976 3.96547 27.5879 3.88054 27.4639 3.82221C27.3399 3.76388 27.2046 3.73358 27.0675 3.73345H5.39483L4.63881 0.707488C4.58843 0.505479 4.47195 0.326114 4.3079 0.197919C4.14385 0.0697234 3.94165 5.75165e-05 3.73345 0H0.933362ZM8.24159 18.6672L5.79058 5.60017H25.9437L23.4927 18.6672H8.24159ZM11.2003 24.2674C11.2003 24.7625 11.0037 25.2373 10.6536 25.5874C10.3035 25.9375 9.82871 26.1341 9.33362 26.1341C8.83854 26.1341 8.36373 25.9375 8.01365 25.5874C7.66357 25.2373 7.4669 24.7625 7.4669 24.2674C7.4669 23.7723 7.66357 23.2975 8.01365 22.9474C8.36373 22.5974 8.83854 22.4007 9.33362 22.4007C9.82871 22.4007 10.3035 22.5974 10.6536 22.9474C11.0037 23.2975 11.2003 23.7723 11.2003 24.2674ZM24.2674 24.2674C24.2674 24.7625 24.0707 25.2373 23.7207 25.5874C23.3706 25.9375 22.8958 26.1341 22.4007 26.1341C21.9056 26.1341 21.4308 25.9375 21.0807 25.5874C20.7306 25.2373 20.534 24.7625 20.534 24.2674C20.534 23.7723 20.7306 23.2975 21.0807 22.9474C21.4308 22.5974 21.9056 22.4007 22.4007 22.4007C22.8958 22.4007 23.3706 22.5974 23.7207 22.9474C24.0707 23.2975 24.2674 23.7723 24.2674 24.2674Z" />
</svg>
