<svg width="15" height="15" viewBox="0 0 15 15" fill="none" xmlns="http://www.w3.org/2000/svg">
<path d="M2.76274 12.8617C2.67603 12.8615 2.59029 12.8433 2.51099 12.8082C2.43169 12.7732 2.36056 12.722 2.30211 12.6579C2.24261 12.5944 2.19721 12.519 2.16888 12.4367C2.14055 12.3544 2.12994 12.2671 2.13774 12.1804L2.29086 10.4967L9.36461 3.42541L11.5752 5.63541L4.50336 12.706L2.81961 12.8592C2.80071 12.8609 2.78173 12.8617 2.76274 12.8617ZM12.0165 5.19354L9.80649 2.98354L11.1321 1.65791C11.1902 1.5998 11.2591 1.5537 11.335 1.52225C11.4108 1.4908 11.4922 1.47461 11.5743 1.47461C11.6564 1.47461 11.7378 1.4908 11.8136 1.52225C11.8895 1.5537 11.9584 1.5998 12.0165 1.65791L13.3421 2.98354C13.4002 3.04158 13.4463 3.11051 13.4778 3.18639C13.5092 3.26226 13.5254 3.34359 13.5254 3.42573C13.5254 3.50786 13.5092 3.58919 13.4778 3.66506C13.4463 3.74094 13.4002 3.80987 13.3421 3.86791L12.0171 5.19291L12.0165 5.19354Z" fill="#24B1A8"/>
</svg>
