<svg width="30" height="31" viewBox="0 0 30 31" fill="none" xmlns="http://www.w3.org/2000/svg">
<path d="M20.9032 18.3525C20.5839 18.1885 18.993 17.4092 18.6971 17.3037C18.4012 17.1924 18.1844 17.1396 17.9706 17.4678C17.7538 17.793 17.1385 18.5166 16.9452 18.7363C16.7577 18.9531 16.5673 18.9795 16.2479 18.8184C14.3495 17.8691 13.1044 17.125 11.8534 14.9775C11.5223 14.4062 12.1844 14.4473 12.8026 13.2139C12.9081 12.9971 12.8553 12.8125 12.7733 12.6484C12.6913 12.4844 12.0468 10.8965 11.7772 10.249C11.5165 9.61914 11.2469 9.70703 11.0507 9.69531C10.8632 9.68359 10.6493 9.68359 10.4325 9.68359C10.2157 9.68359 9.86707 9.76563 9.57117 10.085C9.27527 10.4102 8.44031 11.1924 8.44031 12.7803C8.44031 14.3682 9.59753 15.9062 9.75574 16.123C9.9198 16.3398 12.0321 19.5977 15.2753 21.001C17.326 21.8857 18.1288 21.9619 19.1542 21.8096C19.7782 21.7158 21.0643 21.0303 21.3309 20.2715C21.5975 19.5156 21.5975 18.8682 21.5184 18.7334C21.4393 18.5898 21.2225 18.5078 20.9032 18.3525Z" fill="#24B1A8"/>
<path d="M27.1054 10.6914C26.4433 9.11816 25.4941 7.70605 24.2841 6.49316C23.0741 5.2832 21.662 4.33105 20.0859 3.67188C18.4745 2.99512 16.7636 2.65234 14.9999 2.65234H14.9413C13.1659 2.66113 11.4462 3.0127 9.82902 3.7041C8.2675 4.37207 6.86711 5.32129 5.66887 6.53125C4.47062 7.74121 3.5302 9.14746 2.8798 10.7148C2.20598 12.3379 1.86613 14.0635 1.87492 15.8389C1.88371 17.8721 2.37004 19.8906 3.28117 21.6953V26.1484C3.28117 26.8926 3.88469 27.4961 4.62883 27.4961H9.08488C10.8896 28.4072 12.9081 28.8936 14.9413 28.9023H15.0028C16.7577 28.9023 18.4599 28.5625 20.0624 27.8975C21.6298 27.2441 23.039 26.3066 24.246 25.1084C25.456 23.9102 26.4081 22.5098 27.0732 20.9482C27.7646 19.3311 28.1161 17.6113 28.1249 15.8359C28.1337 14.0518 27.788 12.3203 27.1054 10.6914ZM22.6786 23.5234C20.6249 25.5566 17.9003 26.6758 14.9999 26.6758H14.9501C13.1835 26.667 11.4286 26.2275 9.87883 25.4014L9.63273 25.2695H5.50773V21.1445L5.3759 20.8984C4.54973 19.3486 4.11027 17.5938 4.10148 15.8271C4.08977 12.9062 5.20598 10.1641 7.25383 8.09863C9.29875 6.0332 12.0321 4.89062 14.953 4.87891H15.0028C16.4677 4.87891 17.8886 5.16309 19.2275 5.72559C20.5341 6.27344 21.706 7.06152 22.7138 8.06934C23.7187 9.07422 24.5097 10.249 25.0575 11.5557C25.6259 12.9092 25.9101 14.3447 25.9042 15.8271C25.8866 18.7451 24.7411 21.4785 22.6786 23.5234Z" fill="#24B1A8"/>
</svg>
