{
  "data": [
    {
      "id": 1,
      "title": "Hasil Penjualan Produk",
      "amount": 200000,
      "description": "[Object object], [Object object]",
      "date": "17 Agustus 1945",
      "type": "pemasukan"
    },
    {
      "id": 2,
      "title": "Biaya Pengiriman",
      "amount": 15000,
      "description": "[Object object], [Object object]",
      "date": "17 Agustus 1945",
      "type": "pengeluaran"
    },
    {
      "id": 3,
      "title": "Penarikan Saldo",
      "amount": 300000,
      "description": "[Object object], [Object object]",
      "date": "17 Agustus 1945",
      "type": "pengeluaran"
    }
  ]
}
